Division,WeightClassKg,Place,Name,Team,BodyweightKg,Best3SquatKg,Best3BenchKg,Best3DeadliftKg,TotalKg,Equipment,Event,Sex
Girls,44.23,DQ,Keyla Gamez,Brownsville Pace,40.91,70.31,,,,Single-ply,SBD,F
Girls,47.85,1,Alexis Rivas #2,Brownsville Lopez,47.72,106.59,45.36,97.52,249.48,Single-ply,SBD,F
Girls,47.85,2,Alyssa Tovar,Rio Hondo,47.4,90.72,38.56,104.33,233.6,Single-ply,SBD,F
Girls,47.85,3,Esmeralda Saldana,Brownsville Lopez,46.58,92.99,36.29,92.99,222.26,Single-ply,SBD,F
Girls,47.85,4,Irma Vela,McAllen Rowe,47.81,36.29,22.68,52.16,111.13,Single-ply,SBD,F
Girls,47.85,DQ,Perla Hernandez,Brownsville Pace,47.54,102.06,,,,Single-ply,SBD,F
Girls,51.94,1,Rebecca Rocha,Rio Hondo,48.31,127.01,63.5,122.47,312.98,Single-ply,SBD,F
Girls,51.94,2,Alejandra Escandon,Brownsville Hanna,50.76,102.06,49.9,106.59,258.55,Single-ply,SBD,F
Girls,51.94,3,JoAnn Tello,Raymondville,51.75,104.33,43.09,111.13,258.55,Single-ply,SBD,F
Girls,51.94,4,Evelyn Barajas,Brownsville Lopez,49.9,106.59,47.63,102.06,256.28,Single-ply,SBD,F
Girls,51.94,5,Annabel Santa Cruz,La Feria,51.94,90.72,36.29,102.06,229.06,Single-ply,SBD,F
Girls,51.94,6,Vanessa Aboytes,Rio Hondo,51.85,83.91,40.82,92.99,217.72,Single-ply,SBD,F
Girls,51.94,7,Raven Fernandez,La Feria,48.31,77.11,38.56,86.18,201.85,Single-ply,SBD,F
Girls,51.94,8,Alexandria Canchola,McAllen,50.85,72.57,49.9,79.38,201.85,Single-ply,SBD,F
Girls,51.94,9,Jazlyn Hernandez,La Feria,51.12,86.18,29.48,86.18,201.85,Single-ply,SBD,F
Girls,51.94,10,Karen Amacio,Brownsville Veterans Memorial,48.49,79.38,38.56,74.84,192.78,Single-ply,SBD,F
Girls,51.94,11,Jackie De Moilino,Brownsville Veterans Memorial,50.39,70.31,27.22,90.72,188.24,Single-ply,SBD,F
Girls,51.94,12,Abby Anguiano,Brownsville Veterans Memorial,51.12,61.23,31.75,68.04,161.03,Single-ply,SBD,F
Girls,51.94,DQ,Stephanie Ray,Brownsville Veterans Memorial,50.76,83.91,,,,Single-ply,SBD,F
Girls,51.94,DQ,Iyonne Garcia,McAllen Memorial,48.58,70.31,,,,Single-ply,SBD,F
Girls,51.94,DQ,Brianna Garcia #2,Brownsville Hanna,50.39,56.7,,,,Single-ply,SBD,F
Girls,56.02,1,Briana Rocha,Rio Hondo,55.52,106.59,52.16,124.74,283.5,Single-ply,SBD,F
Girls,56.02,2,Alma Martinez,Raymondville,55.25,102.06,52.16,102.06,256.28,Single-ply,SBD,F
Girls,56.02,3,Demi Ibarra,Brownsville Pace,55.7,102.06,34.02,113.4,249.48,Single-ply,SBD,F
Girls,56.02,4,Shelsy Calvillo,Brownsville Hanna,55.93,92.99,49.9,106.59,249.48,Single-ply,SBD,F
Girls,56.02,5,Paloma Mendiola,Brownsville Lopez,55.75,106.59,45.36,92.99,244.94,Single-ply,SBD,F
Girls,56.02,6,Beatriz Zapata,Brownsville Pace,55.16,83.91,38.56,108.86,231.33,Single-ply,SBD,F
Girls,56.02,7,Miya Whittington,Port Isabel,54.84,86.18,43.09,95.25,224.53,Single-ply,SBD,F
Girls,56.02,8,Christina Martinez,McAllen Memorial,55.57,77.11,52.16,92.99,222.26,Single-ply,SBD,F
Girls,56.02,DQ,Deisy Moreno,Brownsville Pace,53.89,,,,,Single-ply,SBD,F
Girls,56.02,DQ,Yesnia Rocha,San Benito,53.16,108.86,,,,Single-ply,SBD,F
Girls,60.1,1,Gabby Haylock,Brownsville Hanna,60.01,136.08,56.7,133.81,326.59,Single-ply,SBD,F
Girls,60.1,2,Rebekah Medeiros,Rio Hondo,60.06,113.4,58.97,122.47,294.84,Single-ply,SBD,F
Girls,60.1,3,Abriana Luna,San Benito,59.24,115.67,63.5,113.4,292.57,Single-ply,SBD,F
Girls,60.1,4,Alexis Martinez #5,La Feria,59.78,108.86,58.97,117.93,285.76,Single-ply,SBD,F
Girls,60.1,5,Ashley Bobadilla,Brownsville Rivera,58.97,90.72,54.43,108.86,254.01,Single-ply,SBD,F
Girls,60.1,6,Carla Bocanegra,Raymondville,59.33,104.33,49.9,99.79,254.01,Single-ply,SBD,F
Girls,60.1,7,Lori Celedon,McAllen Rowe,58.51,102.06,45.36,104.33,251.74,Single-ply,SBD,F
Girls,60.1,8,Tanija Barbarena,Port Isabel,57.15,97.52,52.16,97.52,247.21,Single-ply,SBD,F
Girls,60.1,9,Jeniece Uribe,Brownsville Hanna,56.25,102.06,45.36,92.99,240.4,Single-ply,SBD,F
Girls,60.1,10,Victoria Hernandez,Raymondville,57.15,92.99,54.43,92.99,240.4,Single-ply,SBD,F
Girls,60.1,11,Jessica Villarreal,Brownsville Hanna,59.19,92.99,38.56,106.59,238.14,Single-ply,SBD,F
Girls,60.1,12,Anna Delgado,Port Isabel,56.06,83.91,47.63,92.99,224.53,Single-ply,SBD,F
Girls,60.1,13,Karem Luna,Brownsville Rivera,60.01,83.91,34.02,97.52,215.46,Single-ply,SBD,F
Girls,60.1,14,Julietta Montalvo,Brownsville Veterans Memorial,56.34,54.43,34.02,74.84,163.29,Single-ply,SBD,F
Girls,60.1,DQ,Cassandra Perez,San Benito,59.6,102.06,,,,Single-ply,SBD,F
Girls,67.36,1,Andrea Ramirez,Rio Hondo,64.14,176.9,72.57,142.88,392.36,Single-ply,SBD,F
Girls,67.36,2,Denice Acosta,San Benito,65.05,151.95,72.57,149.69,374.21,Single-ply,SBD,F
Girls,67.36,3,Marisol Pulido,Brownsville Lopez,62.73,142.88,61.23,147.42,351.53,Single-ply,SBD,F
Girls,67.36,4,Kathy Gauna,Rio Hondo,65.59,124.74,77.11,140.61,342.46,Single-ply,SBD,F
Girls,67.36,5,Lisbeth Gonzalez,San Benito,65.59,129.27,63.5,138.35,331.12,Single-ply,SBD,F
Girls,67.36,6,Victoria Ortega,Rio Hondo,63.73,145.15,61.23,120.2,326.59,Single-ply,SBD,F
Girls,67.36,7,Francesca Sandoval,Port Isabel,65.77,147.42,58.97,120.2,326.59,Single-ply,SBD,F
Girls,67.36,8,Jennifer Cisneros,Brownsville Lopez,67.13,120.2,49.9,129.27,299.37,Single-ply,SBD,F
Girls,67.36,9,Stephanie Cantu,San Benito,64.64,113.4,56.7,106.59,276.69,Single-ply,SBD,F
Girls,67.36,10,Ashley Galloway,McAllen Rowe,66.22,70.31,40.82,88.45,199.58,Single-ply,SBD,F
Girls,67.36,11,Cedilia Delgado,Brownsville Veterans Memorial,62.96,70.31,34.02,92.99,197.31,Single-ply,SBD,F
Girls,67.36,12,Alyssa de la Garza,McAllen Rowe,66,70.31,40.82,72.57,183.7,Single-ply,SBD,F
Girls,67.36,13,Alisha Galvan,Santa Rosa,64.18,56.7,27.22,74.84,158.76,Single-ply,SBD,F
Girls,67.36,DQ,Katerina Cardenas,McAllen,64.86,52.16,,,,Single-ply,SBD,F
Girls,67.36,DQ,Eliani Perez,Brownsville Hanna,66.04,113.4,,,,Single-ply,SBD,F
Girls,75.07,1,Julissa Lopez,Rio Hondo,75.07,133.81,56.7,120.2,310.71,Single-ply,SBD,F
Girls,75.07,2,Adriana Lopez,Raymondville,67.81,111.13,65.77,117.93,294.84,Single-ply,SBD,F
Girls,75.07,3,Isabella Luera,McAllen,69.58,97.52,68.04,108.86,274.42,Single-ply,SBD,F
Girls,75.07,4,Jaslyn Olivarez,McAllen,70.94,108.86,61.23,104.33,274.42,Single-ply,SBD,F
Girls,75.07,5,Alexis Alaniz,Brownsville Hanna,70.4,106.59,52.16,102.06,260.82,Single-ply,SBD,F
Girls,75.07,6,Vanessa Ybarra,Port Isabel,70.31,97.52,47.63,102.06,247.21,Single-ply,SBD,F
Girls,75.07,7,Vanessa Ravell,Brownsville Porter,71.44,111.13,43.09,86.18,240.4,Single-ply,SBD,F
Girls,75.07,8,Mikayla Snyder,Port Isabel,72.53,72.57,45.36,102.06,219.99,Single-ply,SBD,F
Girls,75.07,9,Virginia Galvan,La Feria,73.12,86.18,40.82,86.18,213.19,Single-ply,SBD,F
Girls,75.07,10,Maria Forina,McAllen Rowe,71.85,83.91,34.02,90.72,208.65,Single-ply,SBD,F
Girls,75.07,11,Mia Murphy,McAllen Rowe,71.35,102.06,49.9,9.07,161.03,Single-ply,SBD,F
Girls,75.07,DQ,Valeria Olmeda,McAllen,68.9,99.79,,,,Single-ply,SBD,F
Girls,75.07,DQ,Esmeralda Hinojosa,Raymondville,72.3,124.74,,,,Single-ply,SBD,F
Girls,75.07,DQ,Meline Quintero,Brownsville Lopez,71.67,,,,,Single-ply,SBD,F
Girls,82.33,1,Jennifer Saldana,Brownsville Lopez,79.11,136.08,63.5,131.54,331.12,Single-ply,SBD,F
Girls,82.33,2,Anyssa Barrientes,Rio Hondo,78.29,133.81,56.7,127.01,317.51,Single-ply,SBD,F
Girls,82.33,3,Priscilla Acosta,McAllen Rowe,81.83,104.33,45.36,106.59,256.28,Single-ply,SBD,F
Girls,82.33,4,Kassandra Rodriguez,McAllen,80.97,99.79,58.97,90.72,249.48,Single-ply,SBD,F
Girls,82.33,5,Brittany Barrer,Brownsville Porter,80.74,72.57,43.09,99.79,215.46,Single-ply,SBD,F
Girls,82.33,6,Esly Escanuela,Santa Rosa,81.47,86.18,38.56,88.45,213.19,Single-ply,SBD,F
Girls,82.33,DQ,Rose Mary Reyna,San Benito,80.38,,,,,Single-ply,SBD,F
Girls,90.04,1,Yasmine Perez,La Feria,89.49,149.69,65.77,136.08,351.53,Single-ply,SBD,F
Girls,90.04,2,Dolores Guajardo,Raymondville,84.82,142.88,68.04,115.67,326.59,Single-ply,SBD,F
Girls,90.04,3,Kassie Lopez,Brownsville Porter,88.13,131.54,58.97,124.74,315.25,Single-ply,SBD,F
Girls,90.04,4,Elizabeth Zarabgoza,Raymondville,87.09,124.74,52.16,115.67,292.57,Single-ply,SBD,F
Girls,90.04,5,Monique Gonzalez,La Feria,85.91,115.67,56.7,115.67,288.03,Single-ply,SBD,F
Girls,90.04,6,Summer Castro,Lyford,88,113.4,54.43,113.4,281.23,Single-ply,SBD,F
Girls,90.04,7,Genesis Gonzalez,Brownsville Pace,89.04,111.13,43.09,122.47,276.69,Single-ply,SBD,F
Girls,90.04,8,Olivia Mata,McAllen,86.64,90.72,56.7,104.33,251.74,Single-ply,SBD,F
Girls,90.04,9,Audrey Martinez,Port Isabel,82.51,104.33,43.09,97.52,244.94,Single-ply,SBD,F
Girls,90.04,10,Ianelly Garza,Brownsville Porter,89.13,97.52,36.29,104.33,238.14,Single-ply,SBD,F
Girls,90.04,DQ,April Mata,San Benito,88.9,120.2,,,,Single-ply,SBD,F
Girls,100.02,1,Julianna Delgado,Brownsville Lopez,99.79,199.58,65.77,167.83,433.18,Single-ply,SBD,F
Girls,100.02,2,Karina Martinez #2,Raymondville,97.25,142.88,83.91,124.74,351.53,Single-ply,SBD,F
Girls,100.02,3,Angelica Lozano,McAllen Rowe,96.16,83.91,43.09,115.67,242.67,Single-ply,SBD,F
Girls,100.02,4,Desiree Perez,La Feria,97.07,79.38,40.82,108.86,229.06,Single-ply,SBD,F
Girls,100.02,DQ,Blanca Gonzalez,Brownsville Pace,99.97,149.69,,,,Single-ply,SBD,F
Girls,100.02+,1,Rene Almazan,Brownsville Porter,106.87,154.22,61.23,115.67,331.12,Single-ply,SBD,F
Girls,100.02+,2,Chasity Alvarez,McAllen Rowe,107.05,108.86,49.9,113.4,272.16,Single-ply,SBD,F
Girls,100.02+,3,Britany Rodriguez,San Benito,105.14,111.13,52.16,104.33,267.62,Single-ply,SBD,F
Girls,100.02+,4,Grecia Quintero,Brownsville Pace,114.76,106.59,45.36,99.79,251.74,Single-ply,SBD,F
Girls,100.02+,DQ,Lupita Lerma,San Benito,102.97,179.17,,,,Single-ply,SBD,F
