Division,WeightClassKg,Place,Name,Team,BodyweightKg,Best3SquatKg,Best3BenchKg,Best3DeadliftKg,TotalKg,Equipment,Event,Sex
Girls,44.23,1,Melissa Osasio,Little Elm,44.09,102.06,54.43,120.2,276.69,Single-ply,SBD,F
Girls,44.23,2,Julie Rico,Kennedale,40.37,88.45,40.82,99.79,229.06,Single-ply,SBD,F
Girls,44.23,3,Victoria Bautista,Anna,43.64,83.91,47.63,92.99,224.53,Single-ply,SBD,F
Girls,44.23,4,Heather Hough,Aubrey,43,74.84,43.09,90.72,208.65,Single-ply,SBD,F
Girls,44.23,5,Madison Villa,Sadler S & S Cons,43,74.84,40.82,90.72,206.38,Single-ply,SBD,F
Girls,44.23,6,Asia Sharpe,Gainesville,43.82,79.38,43.09,83.91,206.38,Single-ply,SBD,F
Girls,44.23,7,Lillia Pruitt,Callisburg,43.73,90.72,40.82,72.57,204.12,Single-ply,SBD,F
Girls,44.23,8,Yese Stricklin,Leonard,41.37,74.84,43.09,77.11,195.04,Single-ply,SBD,F
Girls,44.23,9,Crystal Padron,Quinlan Ford,43.73,79.38,38.56,72.57,190.51,Single-ply,SBD,F
Girls,44.23,10,Riane Maher,Aubrey,41,68.04,34.02,77.11,179.17,Single-ply,SBD,F
Girls,44.23,11,Allison Strain,Leonard,42.18,65.77,31.75,74.84,172.37,Single-ply,SBD,F
Girls,44.23,12,Harleigh Doss,Van Alstyne,34.29,49.9,22.68,65.77,138.35,Single-ply,SBD,F
Girls,44.23,DQ,Stefani Bermudez,Denison,42.46,,,,,Single-ply,SBD,F
Girls,47.85,1,Keeley Jurica,Celeste,46.54,122.47,77.11,120.2,319.78,Single-ply,SBD,F
Girls,47.85,2,Tatiana Contreras,Springtown,46.27,115.67,52.16,127.01,294.84,Single-ply,SBD,F
Girls,47.85,3,Taylor Barnes,Valley View,45.09,95.25,38.56,102.06,235.87,Single-ply,SBD,F
Girls,47.85,4,Aly Loftice,Van Alstyne,45.09,79.38,34.02,92.99,206.38,Single-ply,SBD,F
Girls,47.85,5,Sydney Blankenship,Aubrey,45.9,79.38,27.22,86.18,192.78,Single-ply,SBD,F
Girls,47.85,6,Shay Blankenship,Whitewright,47.45,74.84,34.02,83.91,192.78,Single-ply,SBD,F
Girls,47.85,7,Sofia Collantes,Gainesville,46.72,65.77,38.56,83.91,188.24,Single-ply,SBD,F
Girls,47.85,8,Elizabeth Brock,Kennedale,44.72,74.84,36.29,74.84,185.97,Single-ply,SBD,F
Girls,47.85,9,Jessi Maher,Aubrey,47.17,61.23,27.22,77.11,165.56,Single-ply,SBD,F
Girls,47.85,10,Christyn Phipps,Bells,46.08,61.23,34.02,65.77,161.03,Single-ply,SBD,F
Girls,47.85,DQ,Ashley Colvcci,Denison,45.9,74.84,,,,Single-ply,SBD,F
Girls,47.85,DQ,Jennifer Muniz,Sherman,46.36,74.84,34.02,,,Single-ply,SBD,F
Girls,47.85,DQ,Ellie Seale,Valley View,47.54,,,,,Single-ply,SBD,F
Girls,51.94,1,Vicky Aragon-Marcial,Anna,51.44,138.35,83.91,129.27,351.53,Single-ply,SBD,F
Girls,51.94,2,Natalie Walker,Blue Ridge,48.08,136.08,72.57,124.74,333.39,Single-ply,SBD,F
Girls,51.94,3,Makyla Campbell,Little Elm,51.71,106.59,54.43,120.2,281.23,Single-ply,SBD,F
Girls,51.94,4,Brooke Villarreal,Gainesville,50.44,113.4,45.36,108.86,267.62,Single-ply,SBD,F
Girls,51.94,5,Sydney Duvall,Prosper,50.17,92.99,56.7,97.52,247.21,Single-ply,SBD,F
Girls,51.94,6,Crystal Burns,Gainesville,51.89,104.33,52.16,90.72,247.21,Single-ply,SBD,F
Girls,51.94,7,Alex Saenz #1,Kennedale,50.98,90.72,38.56,108.86,238.14,Single-ply,SBD,F
Girls,51.94,8,Maura Ballard,Anna,48.99,86.18,40.82,86.18,213.19,Single-ply,SBD,F
Girls,51.94,9,Carina Mata,Sherman,48.9,74.84,36.29,77.11,188.24,Single-ply,SBD,F
Girls,51.94,10,Megan Irion,Pottsboro,50.8,70.31,38.56,70.31,179.17,Single-ply,SBD,F
Girls,51.94,11,Makayla Warmoth,Callisburg,49.26,58.97,36.29,74.84,170.1,Single-ply,SBD,F
Girls,51.94,12,Abigial Colvert,Wolfe City,51.17,61.23,31.75,65.77,158.76,Single-ply,SBD,F
Girls,51.94,13,Jordan McPherson,Blue Ridge,51.62,47.63,34.02,65.77,147.42,Single-ply,SBD,F
Girls,51.94,14,Jordan McPherson,Blue Ridge,51.62,47.63,34.02,65.77,147.42,Single-ply,SBD,F
Girls,51.94,DQ,Allison Ortowski,Collinsville,51.21,97.52,,,,Single-ply,SBD,F
Girls,51.94,DQ,Nadia Bastrop,Lindsay,50.08,54.43,36.29,,,Single-ply,SBD,F
Girls,51.94,DQ,Talia Pettis,Denison,49.08,61.23,,,,Single-ply,SBD,F
Girls,51.94,DQ,Asia Medlin,Denison,51.07,,,,,Single-ply,SBD,F
Girls,51.94,DQ,Rebecca Reed,Sadler S & S Cons,51.89,,,,,Single-ply,SBD,F
Girls,56.02,1,Trew Gaston,Springtown,54.16,145.15,83.91,140.61,369.68,Single-ply,SBD,F
Girls,56.02,2,Samantha Wann,Springtown,55.43,142.88,79.38,133.81,356.07,Single-ply,SBD,F
Girls,56.02,3,Amanda Imes,Watauga Harvest Christian Academy,55.52,142.88,79.38,131.54,353.8,Single-ply,SBD,F
Girls,56.02,4,Isabelle Fielder,Little Elm,54.16,117.93,65.77,122.47,306.17,Single-ply,SBD,F
Girls,56.02,5,Myra Castro,Springtown,55.7,115.67,56.7,122.47,294.84,Single-ply,SBD,F
Girls,56.02,6,Shelbie Blankenship,Whitewright,55.88,108.86,65.77,104.33,278.96,Single-ply,SBD,F
Girls,56.02,7,Jessica Vargas,Farmersville,55.43,102.06,56.7,113.4,272.16,Single-ply,SBD,F
Girls,56.02,8,Jaqueline Duran,Farmersville,52.53,111.13,61.23,97.52,269.89,Single-ply,SBD,F
Girls,56.02,9,Korina Wallace,Leonard,54.52,92.99,63.5,108.86,265.35,Single-ply,SBD,F
Girls,56.02,10,Sophia Langford,Tom Bean,52.25,104.33,47.63,104.33,256.28,Single-ply,SBD,F
Girls,56.02,11,Savannah Diaz,Anna,52.71,99.79,52.16,102.06,254.01,Single-ply,SBD,F
Girls,56.02,12,Dana McAlister,Aubrey,54.07,95.25,45.36,113.4,254.01,Single-ply,SBD,F
Girls,56.02,13,Camryn Hickman,Collinsville,54.61,99.79,54.43,90.72,244.94,Single-ply,SBD,F
Girls,56.02,14,Elena Garza,Leonard,54.79,90.72,52.16,99.79,242.67,Single-ply,SBD,F
Girls,56.02,15,Makenzie Roberts,Collinsville,55.61,99.79,49.9,90.72,240.4,Single-ply,SBD,F
Girls,56.02,16,Cameran Bilderback,Aubrey,52.44,88.45,58.97,90.72,238.14,Single-ply,SBD,F
Girls,56.02,17,Kayla Spray,Pattonville Prairiland,53.61,97.52,47.63,92.99,238.14,Single-ply,SBD,F
Girls,56.02,18,Lianae Pacheco,Kennedale,54.25,90.72,40.82,99.79,231.33,Single-ply,SBD,F
Girls,56.02,19,Libby Stanley,Denison,55.79,83.91,56.7,90.72,231.33,Single-ply,SBD,F
Girls,56.02,20,Trinity Greenwood,Anna,53.34,90.72,34.02,99.79,224.53,Single-ply,SBD,F
Girls,56.02,21,Sydney Wright,Aubrey,54.25,74.84,52.16,90.72,217.72,Single-ply,SBD,F
Girls,56.02,22,Jessica Purales,Collinsville,53.16,79.38,45.36,90.72,215.46,Single-ply,SBD,F
Girls,56.02,23,Tomi Anderson,Farmersville,53.34,74.84,43.09,70.31,188.24,Single-ply,SBD,F
Girls,56.02,24,Camille Howard,Van Alstyne,52.98,77.11,31.75,77.11,185.97,Single-ply,SBD,F
Girls,56.02,25,Kylee Wilbert,Aubrey,55.34,49.9,43.09,79.38,172.37,Single-ply,SBD,F
Girls,56.02,26,Hagen Lail,Kennedale,54.52,54.43,36.29,68.04,158.76,Single-ply,SBD,F
Girls,60.1,1,Rachel Hellam,Springtown,60.06,147.42,74.84,124.74,347,Single-ply,SBD,F
Girls,60.1,2,Tramera Bynum,Gainesville,59.87,113.4,68.04,156.49,337.93,Single-ply,SBD,F
Girls,60.1,3,Ruth Mitchell #1,Kennedale,56.79,120.2,68.04,127.01,315.25,Single-ply,SBD,F
Girls,60.1,4,Eimmi Fraire,Sadler S & S Cons,58.06,124.74,56.7,120.2,301.64,Single-ply,SBD,F
Girls,60.1,5,Mattie Sherwin,Gainesville,56.79,104.33,61.23,122.47,288.03,Single-ply,SBD,F
Girls,60.1,6,Nakita Harris,Leonard,58.97,108.86,61.23,117.93,288.03,Single-ply,SBD,F
Girls,60.1,7,Brooke Hodge,Anna,60.06,95.25,70.31,95.25,260.82,Single-ply,SBD,F
Girls,60.1,8,Morgan Foster #1,Prosper,58.88,88.45,54.43,115.67,258.55,Single-ply,SBD,F
Girls,60.1,9,Leah Frith,Whitesboro,56.15,102.06,56.7,97.52,256.28,Single-ply,SBD,F
Girls,60.1,10,Hermayonie Dominguez,Whitesboro,58.69,90.72,52.16,111.13,254.01,Single-ply,SBD,F
Girls,60.1,11,Lacie Weinshenk,Celina,59.24,92.99,49.9,102.06,244.94,Single-ply,SBD,F
Girls,60.1,12,Trichelle Meador,Quinlan Ford,59.6,102.06,49.9,92.99,244.94,Single-ply,SBD,F
Girls,60.1,13,Mary Faith Jones,Whitesboro,58.6,95.25,54.43,92.99,242.67,Single-ply,SBD,F
Girls,60.1,14,Kate Vaught,Bonham,59.69,90.72,52.16,92.99,235.87,Single-ply,SBD,F
Girls,60.1,15,Addison Cunningham,Denison,58.6,90.72,47.63,92.99,231.33,Single-ply,SBD,F
Girls,60.1,16,Karen Lopez,Sherman,59.33,88.45,47.63,95.25,231.33,Single-ply,SBD,F
Girls,60.1,17,Ariel Waller,Tom Bean,57.61,74.84,52.16,92.99,219.99,Single-ply,SBD,F
Girls,60.1,18,Amy Fugiel,Celina,56.43,79.38,40.82,90.72,210.92,Single-ply,SBD,F
Girls,60.1,19,Addy Roddy,Van Alstyne,58.79,86.18,34.02,86.18,206.38,Single-ply,SBD,F
Girls,60.1,20,Maame Forson,Little Elm,56.43,83.91,34.02,83.91,201.85,Single-ply,SBD,F
Girls,60.1,21,Mia Hodge,Bonham,58.06,70.31,49.9,81.65,201.85,Single-ply,SBD,F
Girls,60.1,22,Abigail Velten,Whitesboro,57.24,70.31,49.9,79.38,199.58,Single-ply,SBD,F
Girls,60.1,23,Andi Thiesen,Aubrey,60.06,61.23,45.36,92.99,199.58,Single-ply,SBD,F
Girls,60.1,24,Karina Otrhalek,Frisco Liberty,56.15,74.84,47.63,68.04,190.51,Single-ply,SBD,F
Girls,60.1,25,Eva Sharpe,Prosper,57.97,70.31,43.09,77.11,190.51,Single-ply,SBD,F
Girls,60.1,26,Victoria Courtenor,Pottsboro,56.97,63.5,36.29,81.65,181.44,Single-ply,SBD,F
Girls,60.1,27,Haley Davidson,Blue Ridge,59.06,61.23,38.56,52.16,151.95,Single-ply,SBD,F
Girls,60.1,DQ,Sara Henry,Bonham,59.42,90.72,,,,Single-ply,SBD,F
Girls,60.1,DQ,Sierra Sullivant,Callisburg,59.96,,,,,Single-ply,SBD,F
Girls,60.1,DQ,Emma Wolf,Anna,58.24,,,,,Single-ply,SBD,F
Girls,67.36,1,Baylee Lawdermilk,Collinsville,60.78,136.08,72.57,136.08,344.73,Single-ply,SBD,F
Girls,67.36,2,Rita Spirrison,Kennedale,67.22,145.15,79.38,115.67,340.19,Single-ply,SBD,F
Girls,67.36,3,Tia Thompson,Blue Ridge,65.41,140.61,70.31,124.74,335.66,Single-ply,SBD,F
Girls,67.36,4,Linsey Dolan,Denison,66.32,127.01,70.31,131.54,328.85,Single-ply,SBD,F
Girls,67.36,5,Dasna Ushakova,Prosper,65.23,124.74,70.31,131.54,326.59,Single-ply,SBD,F
Girls,67.36,6,Karina Gasper,Gainesville,62.05,113.4,56.7,142.88,312.98,Single-ply,SBD,F
Girls,67.36,7,Lexi Yandell,Denison,67.04,113.4,74.84,122.47,310.71,Single-ply,SBD,F
Girls,67.36,8,Candice Bolden,Little Elm,64.23,115.67,58.97,124.74,299.37,Single-ply,SBD,F
Girls,67.36,9,Erin Hall,Springtown,63.41,111.13,61.23,106.59,278.96,Single-ply,SBD,F
Girls,67.36,10,Ta'kiya Riddick,Denison,67.04,97.52,61.23,117.93,276.69,Single-ply,SBD,F
Girls,67.36,11,Abigail Dick,Sherman,67.31,111.13,56.7,108.86,276.69,Single-ply,SBD,F
Girls,67.36,12,Kylee Thacker,Valley View,63.05,92.99,52.16,127.01,272.16,Single-ply,SBD,F
Girls,67.36,13,Tera Sikes,Blue Ridge,64.68,106.59,52.16,102.06,260.82,Single-ply,SBD,F
Girls,67.36,14,Madison Lewis #3,Bells,65.68,97.52,47.63,113.4,258.55,Single-ply,SBD,F
Girls,67.36,15,Jessica McAdams,Collinsville,63.5,99.79,49.9,104.33,254.01,Single-ply,SBD,F
Girls,67.36,16,Desi Ortega,Valley View,64.59,95.25,45.36,113.4,254.01,Single-ply,SBD,F
Girls,67.36,17,Cailey Hawkins,Aubrey,65.95,92.99,43.09,113.4,249.48,Single-ply,SBD,F
Girls,67.36,18,Jamie Neel,Sadler S & S Cons,66.41,86.18,52.16,111.13,249.48,Single-ply,SBD,F
Girls,67.36,19,Makayla Brown #1,Bells,67.22,90.72,52.16,104.33,247.21,Single-ply,SBD,F
Girls,67.36,20,Delanie Hamilton,Anna,63.5,97.52,54.43,92.99,244.94,Single-ply,SBD,F
Girls,67.36,21,Lanie Fajerson,Sherman,65.23,99.79,52.16,90.72,242.67,Single-ply,SBD,F
Girls,67.36,22,Skye Wright,Farmersville,64.77,86.18,52.16,92.99,231.33,Single-ply,SBD,F
Girls,67.36,23,Beterin CabreraCorrales,Tom Bean,63.23,90.72,47.63,90.72,229.06,Single-ply,SBD,F
Girls,67.36,24,Lauren Guin,Little Elm,65.5,92.99,49.9,83.91,226.8,Single-ply,SBD,F
Girls,67.36,25,Georgia Green,Aubrey,65.86,68.04,56.7,99.79,224.53,Single-ply,SBD,F
Girls,67.36,26,Madison Brinkley,Whitewright,66.22,92.99,40.82,83.91,217.72,Single-ply,SBD,F
Girls,67.36,27,Carlee Sinclair,Collinsville,60.78,83.91,40.82,90.72,215.46,Single-ply,SBD,F
Girls,67.36,28,Morgan Cobb #1,Watauga Harvest Christian Academy,66.22,83.91,36.29,86.18,206.38,Single-ply,SBD,F
Girls,67.36,29,Skylar Brannan,Whitesboro,61.6,68.04,47.63,83.91,199.58,Single-ply,SBD,F
Girls,67.36,30,Megan Theurer,Wolfe City,60.51,61.23,45.36,88.45,195.04,Single-ply,SBD,F
Girls,67.36,31,Ashley Tankerslay,Blue Ridge,61.87,65.77,38.56,52.16,156.49,Single-ply,SBD,F
Girls,67.36,DQ,Ravyn Lyna,Celeste,62.78,81.65,38.56,,,Single-ply,SBD,F
Girls,67.36,DQ,Kyleigh Sandman,Lindsay,64.23,65.77,29.48,,,Single-ply,SBD,F
Girls,67.36,DQ,Jennifer Escn,Pattonville Prairiland,60.24,79.38,45.36,,,Single-ply,SBD,F
Girls,67.36,DQ,Skyler Akins,Denison,66.04,117.93,,,,Single-ply,SBD,F
Girls,67.36,DQ,Taylor Royal,Gainesville,60.78,127.01,,,,Single-ply,SBD,F
Girls,67.36,DQ,Paxtynn Booher,Kennedale,66.32,127.01,,,,Single-ply,SBD,F
Girls,67.36,DQ,Hailey Warren,Whitesboro,60.78,77.11,40.82,,,Single-ply,SBD,F
Girls,67.36,DQ,Hannah McCarson,Prosper,61.23,83.91,52.16,,,Single-ply,SBD,F
Girls,75.07,1,Madelynn Vining,Springtown,71.94,163.29,81.65,145.15,390.09,Single-ply,SBD,F
Girls,75.07,2,Caren Pena,Kennedale,71.76,145.15,68.04,142.88,356.07,Single-ply,SBD,F
Girls,75.07,3,Alannan James,Prosper,74.75,142.88,74.84,136.08,353.8,Single-ply,SBD,F
Girls,75.07,4,Itzel Gomez,Gainesville,74.66,147.42,70.31,133.81,351.53,Single-ply,SBD,F
Girls,75.07,5,MyKiyah Whitfield,Little Elm,69.4,138.35,68.04,138.35,344.73,Single-ply,SBD,F
Girls,75.07,6,Alleeyah Silcox,Nocona,71.94,140.61,63.5,124.74,328.85,Single-ply,SBD,F
Girls,75.07,7,Ashley Boatright,Sherman,67.77,140.61,70.31,115.67,326.59,Single-ply,SBD,F
Girls,75.07,8,Angela Pando,Springtown,71.12,117.93,65.77,136.08,319.78,Single-ply,SBD,F
Girls,75.07,9,Sa'mya Wallace,Little Elm,73.03,129.27,63.5,120.2,312.98,Single-ply,SBD,F
Girls,75.07,10,Taylor Richards,Nocona,70.58,127.01,58.97,122.47,308.44,Single-ply,SBD,F
Girls,75.07,11,Sara Steves,Little Elm,72.48,113.4,52.16,115.67,281.23,Single-ply,SBD,F
Girls,75.07,12,Allyson Richardson,Anna,70.31,115.67,58.97,99.79,274.42,Single-ply,SBD,F
Girls,75.07,13,Victoria Azevedo,Bells,68.67,95.25,52.16,113.4,260.82,Single-ply,SBD,F
Girls,75.07,14,Yuritza Hernandez,Quinlan Ford,74.03,92.99,54.43,113.4,260.82,Single-ply,SBD,F
Girls,75.07,15,Corianna Jordan,Celeste,70.67,92.99,54.43,111.13,258.55,Single-ply,SBD,F
Girls,75.07,16,Mia Gains,Frisco Liberty,70.94,97.52,54.43,106.59,258.55,Single-ply,SBD,F
Girls,75.07,17,Kyleigh Delancey,Celeste,71.58,104.33,61.23,92.99,258.55,Single-ply,SBD,F
Girls,75.07,18,McKena Jensen,Van Alstyne,70.58,106.59,34.02,102.06,242.67,Single-ply,SBD,F
Girls,75.07,19,Lexi Tan,Sherman Texoma Christian School,70.94,81.65,47.63,111.13,240.4,Single-ply,SBD,F
Girls,75.07,20,Bailey Kuhn,Sherman,74.93,90.72,49.9,97.52,238.14,Single-ply,SBD,F
Girls,75.07,21,Christina Turner,Van Alstyne,69.76,81.65,36.29,95.25,213.19,Single-ply,SBD,F
Girls,75.07,22,Jasmine Autairano,Aubrey,73.3,72.57,58.97,81.65,213.19,Single-ply,SBD,F
Girls,75.07,23,Jaylynn Huff,Howe,68.22,81.65,36.29,90.72,208.65,Single-ply,SBD,F
Girls,75.07,24,Jaclynn McCollum,Sherman,69.4,81.65,47.63,74.84,204.12,Single-ply,SBD,F
Girls,75.07,25,Kendall Anderson,Wolfe City,69.22,74.84,49.9,72.57,197.31,Single-ply,SBD,F
Girls,75.07,26,Dayna Rosales,Celina,74.39,74.84,34.02,65.77,174.63,Single-ply,SBD,F
Girls,75.07,27,Loren Freeman,Lindsay,72.94,54.43,38.56,74.84,167.83,Single-ply,SBD,F
Girls,75.07,DQ,Maddie Dills,Bonham,72.94,170.1,,,,Single-ply,SBD,F
Girls,75.07,DQ,Emma Voglesong,Callisburg,67.49,,,,,Single-ply,SBD,F
Girls,82.33,1,Macy Davis,Anna,81.28,199.58,140.61,156.49,496.68,Single-ply,SBD,F
Girls,82.33,2,Karen Smith,Leonard,79.65,142.88,83.91,120.2,347,Single-ply,SBD,F
Girls,82.33,3,Jenna Eugster,Whitesboro,76.2,127.01,79.38,129.27,335.66,Single-ply,SBD,F
Girls,82.33,4,Keely Clark,Callisburg,79.92,129.27,70.31,127.01,326.59,Single-ply,SBD,F
Girls,82.33,5,Maria Rios,Gainesville,81.65,136.08,61.23,122.47,319.78,Single-ply,SBD,F
Girls,82.33,6,Haley Walker,Sadler S & S Cons,80.83,127.01,63.5,117.93,308.44,Single-ply,SBD,F
Girls,82.33,7,Cloe Bowens,Aubrey,78.83,83.91,68.04,136.08,288.03,Single-ply,SBD,F
Girls,82.33,8,Kayley Rohrbough,Callisburg,80.56,102.06,49.9,122.47,274.42,Single-ply,SBD,F
Girls,82.33,9,Katherine Palstring,Wolfe City,76.93,111.13,58.97,102.06,272.16,Single-ply,SBD,F
Girls,82.33,10,Callie Lamb,Bells,81.01,99.79,45.36,111.13,256.28,Single-ply,SBD,F
Girls,82.33,11,Gracie Dombioski,Van Alstyne,78.56,92.99,40.82,99.79,233.6,Single-ply,SBD,F
Girls,82.33,12,Bree Dalton,Celeste,77.38,92.99,52.16,83.91,229.06,Single-ply,SBD,F
Girls,82.33,13,Jordan Passanisi,Bonham,79.47,74.84,49.9,92.99,217.72,Single-ply,SBD,F
Girls,82.33,14,Savannah Torres,Aubrey,77.66,56.7,52.16,88.45,197.31,Single-ply,SBD,F
Girls,90.04,1,Hayden Thompson #1,Whitewright,86.91,136.08,65.77,113.4,315.25,Single-ply,SBD,F
Girls,90.04,2,Janessa Crawford,Van Alstyne,83.37,111.13,54.43,124.74,290.3,Single-ply,SBD,F
Girls,90.04,3,Mackenzie Spielman,Aubrey,87.91,113.4,61.23,113.4,288.03,Single-ply,SBD,F
Girls,90.04,4,Ashlin Bridwell,Van Alstyne,84.73,104.33,61.23,108.86,274.42,Single-ply,SBD,F
Girls,90.04,5,Hallie Nance,Anna,88.81,102.06,63.5,102.06,267.62,Single-ply,SBD,F
Girls,90.04,6,Natalia Sandoval,Farmersville,85.18,97.52,49.9,102.06,249.48,Single-ply,SBD,F
Girls,90.04,7,Zoie Stratton,Whitewright,87.91,108.86,45.36,95.25,249.48,Single-ply,SBD,F
Girls,90.04,8,Sydney Ford,Celeste,87.91,79.38,58.97,88.45,226.8,Single-ply,SBD,F
Girls,90.04,9,Lucy Cates,Blue Ridge,88.36,83.91,47.63,83.91,215.46,Single-ply,SBD,F
Girls,90.04,DQ,Cagen Barkard,Bonham,83.55,129.27,,,,Single-ply,SBD,F
Girls,90.04,DQ,Cameron Hernandez,Little Elm,86.09,,,,,Single-ply,SBD,F
Girls,90.04,DQ,Audrey Gooding,Pattonville Prairiland,89.45,34.02,31.75,,,Single-ply,SBD,F
Girls,90.04,DQ,Aaliyah Henry,Gainesville,83.91,154.22,,,,Single-ply,SBD,F
Girls,100.02,1,Jazmine Kuper,Springtown,99.25,208.65,147.42,154.22,510.29,Single-ply,SBD,F
Girls,100.02,2,Haily Petty,Sadler S & S Cons,92.53,192.78,83.91,165.56,442.25,Single-ply,SBD,F
Girls,100.02,3,Jacie Doyle,Leonard,93.8,151.95,88.45,142.88,383.29,Single-ply,SBD,F
Girls,100.02,4,Carla Ledezma,Denison,95.98,154.22,77.11,142.88,374.21,Single-ply,SBD,F
Girls,100.02,5,Aaliyah Mathis,Denison,97.98,142.88,61.23,138.35,342.46,Single-ply,SBD,F
Girls,100.02,6,Kendra Haskett,Whitewright,92.53,142.88,77.11,120.2,340.19,Single-ply,SBD,F
Girls,100.02,7,Kassie Tuley,Pottsboro,99.06,124.74,72.57,136.08,333.39,Single-ply,SBD,F
Girls,100.02,8,Rebecca Rhew,Howe,97.79,111.13,81.65,138.35,331.12,Single-ply,SBD,F
Girls,100.02,9,Jessica Thomas,Van Alstyne,91.99,136.08,77.11,113.4,326.59,Single-ply,SBD,F
Girls,100.02,10,Samantha Puente,Gainesville,90.9,120.2,63.5,124.74,308.44,Single-ply,SBD,F
Girls,100.02,11,Amber Cunningham,Celina,92.9,131.54,70.31,102.06,303.91,Single-ply,SBD,F
Girls,100.02,12,Tori McCoy,Sadler S & S Cons,97.61,124.74,63.5,95.25,283.5,Single-ply,SBD,F
Girls,100.02,13,Jessica Turner,Van Alstyne,92.26,102.06,54.43,106.59,263.08,Single-ply,SBD,F
Girls,100.02,14,Aubrey Friedman,Howe,91.26,90.72,58.97,108.86,258.55,Single-ply,SBD,F
Girls,100.02,15,Ramie Mosse,Sadler S & S Cons,98.61,72.57,43.09,90.72,206.38,Single-ply,SBD,F
Girls,100.02,16,Taylee Mass,Howe,92.99,52.16,38.56,72.57,163.29,Single-ply,SBD,F
Girls,100.02,DQ,Makaela Manuel,Gainesville,94.71,124.74,,,,Single-ply,SBD,F
Girls,100.02,DQ,Makenzie Morley,Collinsville,90.99,97.52,,,,Single-ply,SBD,F
Girls,100.02,DQ,Angela Hernandez,Quinlan Ford,95.16,,,,,Single-ply,SBD,F
Girls,117.71,1,Izabella Medrano,Sadler S & S Cons,114.85,192.78,108.86,156.49,458.13,Single-ply,SBD,F
Girls,117.71,2,Blake Jarvis,Springtown,116.75,183.7,79.38,151.95,415.04,Single-ply,SBD,F
Girls,117.71,3,Hallee Kolarek,Little Elm,114.94,181.44,83.91,124.74,390.09,Single-ply,SBD,F
Girls,117.71,4,Avery Crossland,Leonard,108.41,145.15,77.11,142.88,365.14,Single-ply,SBD,F
Girls,117.71,5,Kayle Chapman,Leonard,113.22,145.15,95.25,124.74,365.14,Single-ply,SBD,F
Girls,117.71,6,Morgan Moore,Valley View,114.76,142.88,74.84,127.01,344.73,Single-ply,SBD,F
Girls,117.71,7,Dania Arguello,Bonham,103.06,120.2,72.57,124.74,317.51,Single-ply,SBD,F
Girls,117.71,DQ,Abi Spruill,Farmersville,107.41,104.33,58.97,,,Single-ply,SBD,F
Girls,117.71+,1,Ashley Enriquez-Castro,Anna,126.55,235.87,111.13,170.1,517.1,Single-ply,SBD,F
Girls,117.71+,2,Bailey Yale,Sherman Texoma Christian School,136.17,122.47,61.23,115.67,299.37,Single-ply,SBD,F
Girls,117.71+,3,Gracie Smith,Farmersville,122.38,102.06,58.97,117.93,278.96,Single-ply,SBD,F
