Place,Name,Sex,BirthDate,Equipment,Division,BodyweightKg,WeightClassKg,Squat1Kg,Squat2Kg,Squat3Kg,Best3SquatKg,Bench1Kg,Bench2Kg,Bench3Kg,Best3BenchKg,Deadlift1Kg,Deadlift2Kg,Deadlift3Kg,Deadlift4Kg,Best3DeadliftKg,TotalKg,Event,Country
1,Nicole Kelly,F,2008-04-13,Wraps,F_OCR_AIPO,54.5,56,52.5,60,62.5,62.5,25,27.5,30,30,67.5,77.5,-85,,77.5,170,SBD,
DQ,Caitlin Connor,F,,Wraps,F_OCR_AIPO,60,60,-95,,,,,,,,,,,,,,SBD,
1,Debbie Duggan,F,1981-03-14,Wraps,F_OCR_AIPO,67.1,67.5,-125,125,132.5,132.5,60,67.5,72.5,72.5,150,-162.5,-162.5,,150,355,SBD,
2,Grace Badianyama,F,,Wraps,F_OCR_AIPO,62.4,67.5,95,105,115,115,37.5,42.5,45,45,115,125,137.5,,137.5,297.5,SBD,
3,Grace Kennedy,F,,Wraps,F_OCR_AIPO,66.4,67.5,-90,-90,90,90,45,50,52.5,52.5,115,122.5,-132.5,,122.5,265,SBD,
4,Theresa Gorman,F,,Wraps,F_OCR_AIPO,61.1,67.5,45,52.5,-55,52.5,30,35,37.5,37.5,70,-82.5,82.5,,82.5,172.5,SBD,
1,Dannan Jackson,F,,Wraps,F_OCR_AIPO,73.6,75,-105,-115,115,115,52.5,60,65,65,155,-170,180,,180,360,SBD,
2,Anna Marie O'Donoghue,F,1975-09-27,Wraps,F_OCR_AIPO,74.3,75,120,125,127.5,127.5,55,57.5,60,60,130,137.5,140,,140,327.5,SBD,
3,Tara McManus,F,,Wraps,F_OCR_AIPO,73.1,75,100,-110,115,115,55,57.5,-60,57.5,130,135,-140,,135,307.5,SBD,
DQ,Aoibhe McAlister,F,2003-04-06,Wraps,F_OCR_AIPO,78.1,82.5,-85,-92.5,-92.5,,47.5,52.5,57.5,57.5,122.5,132.5,-140,,132.5,,SBD,
1,Molly Quinn,F,,Wraps,F_OCR_AIPO,85.5,90,120,122.5,125,125,50,55,60,60,115,125,132.5,,132.5,317.5,SBD,
1,Megan Haverty,F,1994-04-26,Multi-ply,F_OEM_IPO,47.6,48,-95,-95,95,95,-65,65,70,70,100,-110,110,,110,275,SBD,
1,Julia Mills,F,1978-08-01,Multi-ply,F_OEM_IPO,80,82.5,227.5,250,-272.5,250,175,-185,185,185,-220,220,-240,,220,655,SBD,England
1,Sarah Skehan,F,1988-07-23,Multi-ply,F_OEM_IPO,106.4,110,200,-220,-220,200,85,90,-95,90,155,165,170,-175,170,460,SBD,
1,Rasa Urbonaviciene,F,1980-06-14,Raw,F_MR_1_AIPO,71.6,75,,,,,67.5,-72.5,75,75,,,,,,75,B,
1,Geraldine Bogetoft Power,F,1977-07-25,Raw,F_MR_2_AIPO,88.3,90,,,,,65,70,-75,70,,,,,,70,B,
1,Sarah O'Connor,F,1976-01-27,Raw,F_MR_2_AIPO,67.3,67.5,,,,,,,,,100,110,120,,120,120,D,
1,Isabelle McCabe,F,1993-10-12,Raw,F_OR_AIPO,98,100,,,,,,,,,-140,150,160,,160,160,D,
1,Justin Saricimen,M,2006-07-19,Wraps,M_OCR_IPO,67.4,67.5,150,157.5,162.5,162.5,105,110,115,115,162.5,175,182.5,,182.5,460,SBD,
1,Derek Abbott #1,M,1984-06-18,Wraps,M_OCR_IPO,78,82.5,260,-272.5,272.5,272.5,-157.5,165,-170,165,265,272.5,-280,,272.5,710,SBD,
1,JJ Dunne,M,,Raw,M_OCR_IPO,83,90,210,-220,220,220,115,-125,-128,115,217.5,232.5,240,,240,575,SBD,
2,Brendan O'Sullivan,M,1977-02-21,Wraps,M_OCR_IPO,87.6,90,90,110,135,135,80,90,100,100,160,185,200,,200,435,SBD,
DQ,Steven Callaghan,M,1988-04-25,Wraps,M_OCR_IPO,84.9,90,-170,-175,-180,,120,130,-137.5,130,180,200,-210,,200,,SBD,
1,Martin O Mahony,M,1979-11-16,Wraps,M_OCR_IPO,97.5,100,225,-245,-245,225,137.5,-152.5,-152.5,137.5,250,270,292.5,,292.5,655,SBD,
1,Aidan Murphy,M,,Wraps,M_OCR_IPO,100.5,110,125,-130,-130,125,67.5,70,80,80,150,170,185,,185,390,SBD,
1,AJ Cronin,M,1987-10-07,Wraps,M_OCR_IPO,119,125,295,310,317.5,317.5,185,192.5,-195,192.5,300,-315,-315,,300,810,SBD,
1,Finbar Flynn,M,2007-01-16,Wraps,M_OCR_AIPO,64.8,67.5,125,135,140,140,65,72.5,75,75,142.5,155,162.5,,162.5,377.5,SBD,
1,Shane Kelly #5,M,,Wraps,M_OCR_AIPO,71.8,75,80,87.5,102.5,102.5,75,80,-87.5,80,115,125,140,,140,322.5,SBD,
2,Patrick McSweeney,M,2009-03-24,Wraps,M_OCR_AIPO,71.2,75,120,127.5,-132.5,127.5,95,-100,-100,95,65,,,,65,287.5,SBD,
1,Victor Ibikunle,M,2003-01-02,Wraps,M_OCR_AIPO,76.3,82.5,155,165,175,175,95,102.5,107.5,107.5,215,220,242.5,,242.5,525,SBD,
2,Matt O'Neill,M,1995-07-15,Wraps,M_OCR_AIPO,80.6,82.5,120,130,-145,130,100,-110,-110,100,140,150,-162.5,,150,380,SBD,
1,Jay Holland,M,,Wraps,M_OCR_AIPO,89.3,90,225,240,-247.5,240,120,130,135,135,215,225,230,,230,605,SBD,
2,Tristan McDonagh,M,1997-03-08,Wraps,M_OCR_AIPO,85.7,90,215,225,230,230,122.5,132.5,-140,132.5,215,225,237.5,-250,237.5,600,SBD,
1,Shane Nugent,M,,Wraps,M_OCR_AIPO,99.4,100,210,230,,230,135,145,150,150,250,275,292.5,,292.5,672.5,SBD,
2,Jake Faulkner #2,M,1996-06-10,Wraps,M_OCR_AIPO,99.4,100,195,-215,,195,115,120,-125,120,195,210,217.5,,217.5,532.5,SBD,
3,Ciaran Mc Cormack,M,1999-03-21,Wraps,M_OCR_AIPO,96.5,100,170,177.5,-180,177.5,120,127.5,130,130,205,217.5,-225,,217.5,525,SBD,
4,Peter Finegan,M,2000-11-07,Wraps,M_OCR_AIPO,94.7,100,-170,182.5,-192.5,182.5,107.5,115,120,120,190,-215,-215,,190,492.5,SBD,
5,Jordan Myles,M,,Wraps,M_OCR_AIPO,99.9,100,-95,-95,95,95,70,-77.5,-77.5,70,120,140,-147.5,,140,305,SBD,
DQ,Tony Stringer,M,,Wraps,M_OCR_AIPO,97,100,-200,210,220,220,,,,,,,,,,,SBD,
1,Kieran Hegarty,M,,Wraps,M_OCR_AIPO,107.5,110,240,255,267.5,267.5,162.5,167.5,172.5,172.5,225,245,265,,265,705,SBD,
2,Christy Reddan,M,1988-09-18,Wraps,M_OCR_AIPO,101.6,110,190,200,-205,200,135,140,-145,140,210,220,-230,,220,560,SBD,
3,Patrick Ayton,M,,Wraps,M_OCR_AIPO,103.7,110,140,150,160,160,107.5,-110,110,110,170,185,200,,200,470,SBD,
4,Jude Spenser,M,,Wraps,M_OCR_AIPO,107.3,110,-160,160,165,165,85,90,92.5,92.5,175,200,-222.5,,200,457.5,SBD,
DQ,Bryan Keelan,M,,Wraps,M_OCR_AIPO,103.6,110,140,155,170,170,95,105,-115,105,-210,-215,,,,,SBD,
1,Gavin Browne,M,1990-08-02,Wraps,M_OCR_AIPO,120.4,125,220,-245,245,245,145,155,162.5,162.5,240,255,-265,,255,662.5,SBD,
2,Garrett Gallagher,M,,Wraps,M_OCR_AIPO,111.3,125,220,240,245,245,135,140,-145,140,220,240,-242.5,,240,625,SBD,
3,Glenn Thornton,M,,Wraps,M_OCR_AIPO,120.6,125,205,217.5,227.5,227.5,120,130,135,135,195,-215,215,,215,577.5,SBD,
4,Evan Tyndall,M,2002-02-09,Raw,M_OCR_AIPO,115,125,-185,200,-215,200,125,132.5,-140,132.5,205,230,-250,,230,562.5,SBD,
1,Denis O'Brien,M,,Wraps,M_OCR_AIPO,137,140,-190,-190,190,190,-105,105,110,110,-190,190,-200,,190,490,SBD,
DQ,Luke O'Brien,M,1997-06-19,Multi-ply,M_OEM_IPO,84.9,90,-230,230,,230,,,,,,,,,,,SBD,
1,Michael Gallagher #2,M,1975-10-29,Multi-ply,M_OEM_IPO,59.9,60,175,-185,-185,175,100,-115,-115,100,165,-175,,,165,440,SBD,
1,Daniel Whittall,M,,Multi-ply,M_OEM_IPO,99.5,100,300,-317.5,,300,-190,190,200,200,-220,220,-250,,220,720,SBD,England
1,Samuel Colgan,M,,Multi-ply,M_OEM_IPO,107.5,110,330,-350,350,350,225,245,-250,245,275,-292.5,292.5,,292.5,887.5,SBD,
1,Oisin Smith,M,,Multi-ply,M_OEM_IPO,113.6,125,235,250,-257.5,250,135,142.5,147.5,147.5,210,220,227.5,,227.5,625,SBD,
1,Tommy Collins,M,1981-03-13,Raw,M_MR_1_IPO,102.4,110,,,,,160,180,-185,180,,,,,,180,B,
DQ,Justin Carroll,M,1980-11-16,Raw,M_MR_1_AIPO,91.3,100,,,,,-130,,,,,,,,,,B,
1,Brendan O'Rourke,M,1976-06-01,Raw,M_MR_2_AIPO,96.1,100,,,,,137.5,-145,147.5,147.5,,,,,,147.5,B,
1,Jacob Scerba,M,1990-02-22,Raw,M_OCR_IPO,120.5,125,,,,,162.5,172.5,-180,172.5,,,,,,172.5,B,
1,James Black #1,M,1991-05-31,Multi-ply,M_OEM_IPO,106.1,110,,,,,-180,205,210,210,,,,,,210,B,
1,Ronan Martin,M,1987-09-16,Raw,M_OR_AIPO,78.9,82.5,,,,,107.5,115,-122.5,115,,,,,,115,B,
1,James Kennedy #2,M,1984-04-09,Raw,M_OR_AIPO,90.8,100,,,,,100,107.5,110,110,,,,,,110,B,
1,Conor Mooney,M,1992-05-25,Raw,M_OR_AIPO,134.2,140,,,,,160,170,180,180,,,,,,180,B,
1,Matthew Batista,M,2007-02-27,Raw,M_TR_2_AIPO,99.5,100,,,,,75,-85,-85,75,,,,,,75,B,
DQ,Dean Gartland,M,,Multi-ply,M_OEM_IPO,80.8,82.5,,,,,-200,-217.5,-222.5,,,,,,,,B,
1,Brendan O'Rourke,M,1976-06-01,Raw,M_MR_2_AIPO,96.1,100,,,,,,,,,210,230,,,230,230,D,
1,Seán Hoey,M,1973-03-08,Raw,M_MR_3_IPO,98.8,100,,,,,,,,,275,290,-302.5,,290,290,D,
1,Caoilin Traynor,M,1999-09-17,Raw,M_OR_AIPO,108.7,110,,,,,,,,,-255,280,-301,,280,280,D,
1,Conor Mooney,M,1992-05-25,Raw,M_OR_AIPO,134.2,140,,,,,,,,,260,280,-290,,280,280,D,
1,Luke Hickey,M,1989-02-09,Raw,M_OR_AIPO,153.8,140+,,,,,,,,,200,225,-250,,225,225,D,
1,Matthew Batista,M,2007-02-27,Raw,M_TR_2_AIPO,99.5,100,,,,,,,,,210,220,230,,230,230,D,
